…
# sensitivityCalculation returns expected results with multiple custom functions

    Code
      customPKData
    Output
      # A tibble: 24 x 11
         OutputPath                                                               
         <chr>                                                                    
       1 Organism|PeripheralVenousBlood|Aciclovir|Plasma (Peripheral Venous Blood)
       2 Organism|PeripheralVenousBlood|Aciclovir|Plasma (Peripheral Venous Blood)
       3 Organism|PeripheralVenousBlood|Aciclovir|Plasma (Peripheral Venous Blood)
       4 Organism|PeripheralVenousBlood|Aciclovir|Plasma (Peripheral Venous Blood)
       5 Organism|PeripheralVenousBlood|Aciclovir|Plasma (Peripheral Venous Blood)
       6 Organism|PeripheralVenousBlood|Aciclovir|Plasma (Peripheral Venous Blood)
       7 Organism|PeripheralVenousBlood|Aciclovir|Plasma (Peripheral Venous Blood)
       8 Organism|PeripheralVenousBlood|Aciclovir|Plasma (Peripheral Venous Blood)
       9 Organism|PeripheralVenousBlood|Aciclovir|Plasma (Peripheral Venous Blood)
      10 Organism|PeripheralVenousBlood|Aciclovir|Plasma (Peripheral Venous Blood)
         ParameterPath                                               ParameterFactor
         <chr>                                                                 <dbl>
       1 Aciclovir|Lipophilicity                                                 0.1
       2 Aciclovir|Lipophilicity                                                 1  
       3 Aciclovir|Lipophilicity                                                 2  
       4 Aciclovir|Lipophilicity                                                20  
       5 Aciclovir|Lipophilicity                                                 0.1
       6 Aciclovir|Lipophilicity                                                 1  
       7 Aciclovir|Lipophilicity                                                 2  
       8 Aciclovir|Lipophilicity                                                20  
       9 Events|IV 250mg 10min|Application_1|ProtocolSchemaItem|Dose             0.1
      10 Events|IV 250mg 10min|Application_1|ProtocolSchemaItem|Dose             1  
         ParameterValue ParameterUnit ParameterPathUserName PKParameter
                  <dbl> <chr>         <chr>                 <chr>      
       1      -0.0097   Log Units     <NA>                  max_slope  
       2      -0.097    Log Units     <NA>                  max_slope  
       3      -0.194    Log Units     <NA>                  max_slope  
       4      -1.94     Log Units     <NA>                  max_slope  
       5      -0.0097   Log Units     <NA>                  minmax     
       6      -0.097    Log Units     <NA>                  minmax     
       7      -0.194    Log Units     <NA>                  minmax     
       8      -1.94     Log Units     <NA>                  minmax     
       9       0.000025 kg            <NA>                  max_slope  
      10       0.00025  kg            <NA>                  max_slope  
         PKParameterValue PKPercentChange Unit  SensitivityPKParameter
                    <dbl>           <dbl> <chr>                  <dbl>
       1           5.847           -1.167 <NA>                 0.01296
       2           5.916            0     <NA>               NaN      
       3           5.979            1.057 <NA>                 0.01057
       4           7.418           25.38  <NA>                 0.01336
       5        1430.              -7.386 <NA>                 0.08206
       6        1544.               0     <NA>               NaN      
       7        1611.               4.327 <NA>                 0.04327
       8        1164.             -24.61  <NA>                -0.01295
       9           0.5916         -90.00  <NA>                 1.0000 
      10           5.916            0     <NA>               NaN      
      # i 14 more rows

# sensitivityCalculation applies custom PK function with multiple output paths

    Code
      customPKDataMultiple
    Output
      # A tibble: 27 x 11
         OutputPath                                                               
         <chr>                                                                    
       1 Organism|ArterialBlood|Plasma|Aciclovir                                  
       2 Organism|PeripheralVenousBlood|Aciclovir|Plasma (Peripheral Venous Blood)
       3 Organism|Age                                                             
       4 Organism|ArterialBlood|Plasma|Aciclovir                                  
       5 Organism|PeripheralVenousBlood|Aciclovir|Plasma (Peripheral Venous Blood)
       6 Organism|Age                                                             
       7 Organism|ArterialBlood|Plasma|Aciclovir                                  
       8 Organism|PeripheralVenousBlood|Aciclovir|Plasma (Peripheral Venous Blood)
       9 Organism|Age                                                             
      10 Organism|ArterialBlood|Plasma|Aciclovir                                  
         ParameterPath                                               ParameterFactor
         <chr>                                                                 <dbl>
       1 Aciclovir|Lipophilicity                                                   1
       2 Aciclovir|Lipophilicity                                                   1
       3 Aciclovir|Lipophilicity                                                   1
       4 Aciclovir|Lipophilicity                                                   5
       5 Aciclovir|Lipophilicity                                                   5
       6 Aciclovir|Lipophilicity                                                   5
       7 Aciclovir|Lipophilicity                                                  10
       8 Aciclovir|Lipophilicity                                                  10
       9 Aciclovir|Lipophilicity                                                  10
      10 Events|IV 250mg 10min|Application_1|ProtocolSchemaItem|Dose               1
         ParameterValue ParameterUnit ParameterPathUserName PKParameter
                  <dbl> <chr>         <chr>                 <chr>      
       1       -0.097   Log Units     <NA>                  minmax     
       2       -0.097   Log Units     <NA>                  minmax     
       3       -0.097   Log Units     <NA>                  minmax     
       4       -0.485   Log Units     <NA>                  minmax     
       5       -0.485   Log Units     <NA>                  minmax     
       6       -0.485   Log Units     <NA>                  minmax     
       7       -0.97    Log Units     <NA>                  minmax     
       8       -0.97    Log Units     <NA>                  minmax     
       9       -0.97    Log Units     <NA>                  minmax     
      10        0.00025 kg            <NA>                  minmax     
         PKParameterValue PKPercentChange Unit  SensitivityPKParameter
                    <dbl>           <dbl> <chr>                  <dbl>
       1        0.0003409           0     <NA>               NaN      
       2        0.0006476           0     <NA>               NaN      
       3        1                   0     <NA>               NaN      
       4        0.0002932         -14.01  <NA>                -0.03501
       5        0.0005992          -7.474 <NA>                -0.01868
       6        1                   0     <NA>                 0      
       7        0.0005275          54.72  <NA>                 0.06080
       8        0.0009463          46.13  <NA>                 0.05126
       9        1                   0     <NA>                 0      
      10        0.0003409           0     <NA>               NaN      
      # i 17 more rows
