Visualization and reporting • esqlabsR
…
Plotting the simulation results is an important part of model
diagnostics and quality control. Simulated modeling scenarios can be
passed to plotting functions from the ospsuite package to
create uniformly-looking plots.

DataCombined is a class used to store matching observed
and simulated data. Initialize a new class instance and populate it with
data with the following code:

dataCombined <- DataCombined$new()
dataCombined$addDataSets(observedData, names = "Observed", groups = "Aciclovir")
dataCombined$addSimulationResults(simulatedScenarios$TestScenario$results, names = "Simulated", groups = "Aciclovir")
dataCombined$toDataFrame()
#> # A tibble: 1,452 × 25
#>    name     group    dataT…¹ xValues xUnit xDime…² yValues yUnit yDime…³ yErro…⁴
#>    <chr>    <chr>    <chr>     <dbl> <chr> <chr>     <dbl> <chr> <chr>     <dbl>
#>  1 Observed Aciclov… observ…   0.273 h     Time      2.37  mg/l  Concen…    0   
#>  2 Observed Aciclov… observ…   0.485 h     Time      2.95  mg/l  Concen…    1.23
#>  3 Observed Aciclov… observ…   0.758 h     Time      3.08  mg/l  Concen…    1.28
#>  4 Observed Aciclov… observ…   1.15  h     Time      3.08  mg/l  Concen…    1.82
#>  5 Observed Aciclov… observ…   1.61  h     Time      2.17  mg/l  Concen…    0   
#>  6 Observed Aciclov… observ…   1.97  h     Time      1.93  mg/l  Concen…    0   
#>  7 Observed Aciclov… observ…   3     h     Time      1.31  mg/l  Concen…    0   
#>  8 Observed Aciclov… observ…   5.03  h     Time      0.732 mg/l  Concen…    0   
#>  9 Observed Aciclov… observ…   7     h     Time      0.434 mg/l  Concen…    0   
#> 10 Observed Aciclov… observ…  11.0   h     Time      0.164 mg/l  Concen…    0   
#> # … with 1,442 more rows, 15 more variables: yErrorType <chr>,
#> #   yErrorUnit <chr>, molWeight <dbl>, lloq <dbl>, Sheet <chr>,
#> #   `Study Id` <chr>, `Subject Id` <chr>, Organ <chr>, Compartment <chr>,
#> #   Species <chr>, Gender <chr>, Dose <chr>, Molecule <chr>, Route <chr>,
#> #   IndividualId <int>, and abbreviated variable names ¹​dataType, ²​xDimension,
#> #   ³​yDimension, ⁴​yErrorValues
…
