Carry out and visualize sensitivity analysis (with OSPSuite) — sensitivityCalculation • esqlabsR
…
#> SimulationResults: 
#>    Number of individuals: 1 
#> 
#> 
#> 
#> $outputPaths
#> [1] "Organism|PeripheralVenousBlood|Aciclovir|Plasma (Peripheral Venous Blood)"
#> 
#> $parameterPaths
#> [1] "Aciclovir|Lipophilicity"                                                            
#> [2] "Applications|IV 250mg 10min|Application_1|ProtocolSchemaItem|Dose"                  
#> [3] "Neighborhoods|Kidney_pls_Kidney_ur|Aciclovir|Glomerular Filtration-GFR|GFR fraction"
#> 
#> $pkData
#> # A tibble: 168 x 9
#>    OutputPath           ParameterPath ParameterFactor ParameterValue PKParameter
#>    <chr>                <chr>                   <dbl>          <dbl> <chr>      
#>  1 Organism|Peripheral~ Aciclovir|Li~             0.1        -0.0097 AUC_inf    
#>  2 Organism|Peripheral~ Aciclovir|Li~             0.2        -0.0194 AUC_inf    
#>  3 Organism|Peripheral~ Aciclovir|Li~             0.3        -0.0291 AUC_inf    
#>  4 Organism|Peripheral~ Aciclovir|Li~             0.4        -0.0388 AUC_inf    
#>  5 Organism|Peripheral~ Aciclovir|Li~             0.5        -0.0485 AUC_inf    
#>  6 Organism|Peripheral~ Aciclovir|Li~             0.6        -0.0582 AUC_inf    
#>  7 Organism|Peripheral~ Aciclovir|Li~             0.7        -0.0679 AUC_inf    
#>  8 Organism|Peripheral~ Aciclovir|Li~             0.8        -0.0776 AUC_inf    
#>  9 Organism|Peripheral~ Aciclovir|Li~             0.9        -0.0873 AUC_inf    
#> 10 Organism|Peripheral~ Aciclovir|Li~             1          -0.097  AUC_inf    
#> # ... with 158 more rows, and 4 more variables: PKParameterValue <dbl>,
#> #   Unit <chr>, PercentChangePK <dbl>, SensitivityPKParameter <dbl>
…
